<?xml version="1.0" encoding="UTF-8" standalone="no"?>
<!-- Created with Inkscape (http://www.inkscape.org/) -->

<svg
   xmlns:dc="http://purl.org/dc/elements/1.1/"
   xmlns:cc="http://creativecommons.org/ns#"
   xmlns:rdf="http://www.w3.org/1999/02/22-rdf-syntax-ns#"
   xmlns:svg="http://www.w3.org/2000/svg"
   xmlns="http://www.w3.org/2000/svg"
   xmlns:sodipodi="http://sodipodi.sourceforge.net/DTD/sodipodi-0.dtd"
   xmlns:inkscape="http://www.inkscape.org/namespaces/inkscape"
   width="337.89725"
   height="285.69556"
   id="svg2"
   version="1.1"
   inkscape:version="0.48.4 r9939"
   sodipodi:docname="New document 1">
  <defs
     id="defs4" />
  <sodipodi:namedview
     id="base"
     pagecolor="#ffffff"
     bordercolor="#666666"
     borderopacity="1.0"
     inkscape:pageopacity="0.0"
     inkscape:pageshadow="2"
     inkscape:zoom="0.7"
     inkscape:cx="138.13303"
     inkscape:cy="-6.5093801"
     inkscape:document-units="px"
     inkscape:current-layer="layer1"
     showgrid="false"
     fit-margin-right="-0.3"
     fit-margin-top="0"
     fit-margin-left="0"
     fit-margin-bottom="0"
     inkscape:window-width="946"
     inkscape:window-height="847"
     inkscape:window-x="0"
     inkscape:window-y="0"
     inkscape:window-maximized="0" />
  <metadata
     id="metadata7">
    <rdf:RDF>
      <cc:Work
         rdf:about="">
        <dc:format>image/svg+xml</dc:format>
        <dc:type
           rdf:resource="http://purl.org/dc/dcmitype/StillImage" />
        <dc:title></dc:title>
      </cc:Work>
    </rdf:RDF>
  </metadata>
  <g
     inkscape:label="Layer 1"
     inkscape:groupmode="layer"
     id="layer1"
     transform="translate(-225.209,-336.30443)">
    <g
       id="g3816"
       transform="translate(-80,17.142857)">
      <path
         sodipodi:nodetypes="cc"
         inkscape:connector-curvature="0"
         id="path2995"
         d="m 500.02551,425.05745 c 0,0 75.84967,-44.34568 106.24959,-96.99988"
         style="fill:none;stroke:#000000;stroke-width:5;stroke-linecap:butt;stroke-linejoin:miter;stroke-miterlimit:4;stroke-opacity:1;stroke-dasharray:none" />
      <path
         sodipodi:nodetypes="cc"
         inkscape:connector-curvature="0"
         id="path2995-4"
         d="m 534.78399,470.52693 c 0,0 75.84967,-44.34568 106.24959,-96.99988"
         style="fill:none;stroke:#000000;stroke-width:5;stroke-linecap:butt;stroke-linejoin:miter;stroke-miterlimit:4;stroke-opacity:1;stroke-dasharray:none" />
      <path
         inkscape:connector-curvature="0"
         id="path3794"
         d="m 606.09153,328.08281 35.35534,45.45686"
         style="fill:none;stroke:#000000;stroke-width:5;stroke-linecap:butt;stroke-linejoin:miter;stroke-miterlimit:4;stroke-opacity:1;stroke-dasharray:none" />
      <path
         sodipodi:nodetypes="cc"
         inkscape:connector-curvature="0"
         id="path2995-3"
         d="m 507.50987,456.3848 c 0,0 51.60601,-26.16293 89.077,-72.75622"
         style="fill:none;stroke:#4dff27;stroke-width:10;stroke-linecap:butt;stroke-linejoin:miter;stroke-miterlimit:4;stroke-opacity:1;stroke-dasharray:20, 10;stroke-dashoffset:0" />
      <path
         transform="translate(-11.111678,-118.18785)"
         d="m 634.37583,489.20215 c 0,7.53154 -6.10552,13.63706 -13.63706,13.63706 -7.53154,0 -13.63706,-6.10552 -13.63706,-13.63706 0,-7.53154 6.10552,-13.63706 13.63706,-13.63706 7.53154,0 13.63706,6.10552 13.63706,13.63706 z"
         sodipodi:ry="13.637059"
         sodipodi:rx="13.637059"
         sodipodi:cy="489.20215"
         sodipodi:cx="620.73877"
         id="path3814"
         style="color:#000000;fill:none;stroke:#4dff27;stroke-width:7;stroke-linecap:butt;stroke-linejoin:miter;stroke-miterlimit:4;stroke-opacity:1;stroke-dasharray:14, 7;stroke-dashoffset:2.1;marker:none;visibility:visible;display:inline;overflow:visible;enable-background:accumulate"
         sodipodi:type="arc" />
    </g>
    <g
       id="g3816-7"
       transform="matrix(-1,0,0,1,868.61525,17.142853)">
      <path
         sodipodi:nodetypes="cc"
         inkscape:connector-curvature="0"
         id="path2995-35"
         d="m 500.02551,425.05745 c 0,0 75.84967,-44.34568 106.24959,-96.99988"
         style="fill:none;stroke:#000000;stroke-width:5;stroke-linecap:butt;stroke-linejoin:miter;stroke-miterlimit:4;stroke-opacity:1;stroke-dasharray:none" />
      <path
         sodipodi:nodetypes="cc"
         inkscape:connector-curvature="0"
         id="path2995-4-0"
         d="m 534.78399,470.52693 c 0,0 75.84967,-44.34568 106.24959,-96.99988"
         style="fill:none;stroke:#000000;stroke-width:5;stroke-linecap:butt;stroke-linejoin:miter;stroke-miterlimit:4;stroke-opacity:1;stroke-dasharray:none" />
      <path
         inkscape:connector-curvature="0"
         id="path3794-2"
         d="m 606.09153,328.08281 35.35534,45.45686"
         style="fill:none;stroke:#000000;stroke-width:5;stroke-linecap:butt;stroke-linejoin:miter;stroke-miterlimit:4;stroke-opacity:1;stroke-dasharray:none" />
      <path
         sodipodi:nodetypes="cc"
         inkscape:connector-curvature="0"
         id="path2995-3-9"
         d="m 507.50987,456.3848 c 0,0 51.60601,-26.16293 89.077,-72.75622"
         style="fill:none;stroke:#4dff27;stroke-width:10;stroke-linecap:butt;stroke-linejoin:miter;stroke-miterlimit:4;stroke-opacity:1;stroke-dasharray:20, 10;stroke-dashoffset:0" />
      <path
         transform="translate(-11.111678,-118.18785)"
         d="m 634.37583,489.20215 c 0,7.53154 -6.10552,13.63706 -13.63706,13.63706 -7.53154,0 -13.63706,-6.10552 -13.63706,-13.63706 0,-7.53154 6.10552,-13.63706 13.63706,-13.63706 7.53154,0 13.63706,6.10552 13.63706,13.63706 z"
         sodipodi:ry="13.637059"
         sodipodi:rx="13.637059"
         sodipodi:cy="489.20215"
         sodipodi:cx="620.73877"
         id="path3814-6"
         style="color:#000000;fill:none;stroke:#4dff27;stroke-width:7;stroke-linecap:butt;stroke-linejoin:miter;stroke-miterlimit:4;stroke-opacity:1;stroke-dasharray:14, 7;stroke-dashoffset:2.1;marker:none;visibility:visible;display:inline;overflow:visible;enable-background:accumulate"
         sodipodi:type="arc" />
    </g>
    <g
       id="g3771"
       transform="translate(90.668625,22.366934)">
      <path
         d="m 359.61431,371.01428 c 0,30.963 -25.10047,56.06347 -56.06347,56.06347 -30.96299,0 -56.06346,-25.10047 -56.06346,-56.06347 0,-30.96299 25.10047,-56.06346 56.06346,-56.06346 30.963,0 56.06347,25.10047 56.06347,56.06346 z"
         sodipodi:ry="56.063465"
         sodipodi:rx="56.063465"
         sodipodi:cy="371.01428"
         sodipodi:cx="303.55084"
         id="path2997"
         style="color:#000000;fill:#ffc085;fill-opacity:1;fill-rule:nonzero;stroke:#000000;stroke-width:2;stroke-linecap:butt;stroke-linejoin:miter;stroke-miterlimit:4;stroke-opacity:1;stroke-dasharray:none;stroke-dashoffset:0;marker:none;visibility:visible;display:inline;overflow:visible;enable-background:accumulate"
         sodipodi:type="arc" />
      <path
         inkscape:connector-curvature="0"
         id="path3767"
         d="m 354.56354,391.72242 c 0,0 -26.26396,13.13198 -45.45686,-6.06092"
         style="fill:none;stroke:#000000;stroke-width:3;stroke-linecap:butt;stroke-linejoin:miter;stroke-miterlimit:4;stroke-opacity:1;stroke-dasharray:none" />
      <path
         transform="translate(7.0710678,96.974644)"
         d="m 336.3808,255.35182 c 0,5.02103 -4.07034,9.09137 -9.09137,9.09137 -5.02103,0 -9.09137,-4.07034 -9.09137,-9.09137 0,-5.02102 4.07034,-9.09137 9.09137,-9.09137 5.02103,0 9.09137,4.07035 9.09137,9.09137 z"
         sodipodi:ry="9.0913725"
         sodipodi:rx="9.0913725"
         sodipodi:cy="255.35182"
         sodipodi:cx="327.28943"
         id="path3769"
         style="color:#000000;fill:#000000;fill-opacity:1;fill-rule:nonzero;stroke:none;stroke-width:3;marker:none;visibility:visible;display:inline;overflow:visible;enable-background:accumulate"
         sodipodi:type="arc" />
    </g>
    <text
       xml:space="preserve"
       style="font-size:56px;font-style:normal;font-variant:normal;font-weight:bold;font-stretch:normal;line-height:125%;letter-spacing:0px;word-spacing:0px;fill:#000000;fill-opacity:1;stroke:none;font-family:Comfortaa;-inkscape-font-specification:Comfortaa Bold"
       x="362.85715"
       y="523.79077"
       id="text3916"
       sodipodi:linespacing="125%"><tspan
         sodipodi:role="line"
         id="tspan3918"
         x="362.85715"
         y="523.79077">N</tspan></text>
    <text
       xml:space="preserve"
       style="font-size:56px;font-style:normal;font-variant:normal;font-weight:bold;font-stretch:normal;line-height:125%;letter-spacing:0px;word-spacing:0px;fill:#000000;fill-opacity:1;stroke:none;font-family:Comfortaa;-inkscape-font-specification:Comfortaa Bold"
       x="392.85715"
       y="552.36218"
       id="text3920"
       sodipodi:linespacing="125%"><tspan
         sodipodi:role="line"
         id="tspan3922"
         x="392.85715"
         y="552.36218">J</tspan></text>
    <path
       style="fill:none;stroke:#000000;stroke-width:5;stroke-linecap:butt;stroke-linejoin:miter;stroke-miterlimit:4;stroke-opacity:1;stroke-dasharray:none"
       d="m 332.85714,486.6479 0,132.85714 120,0 0,-132.85714"
       id="path3926"
       inkscape:connector-curvature="0" />
  </g>
</svg>
